<br><font color='#000000'>=======================================</br></font>
<br><font color='#008080'>***************** <b>PREMIUM SERVER</b> ****************</br></font>
<br><font color='#000000'>=======================================</br></font>
<br></br>
<br><font color='#FF0000'>****************** <b>!!!WARNING!!!</b> ******************</br></font>
<br></br>
<br><font color='#860000'>NO SPAM !!!</br></font>
<br><font color='#1E90FF'>NO DDOS !!!</br></font>
<br><font color='#FF0000'>NO HACKING !!!</br></font>
<br><font color='#008080'>NO CARDING !!!</br></font>
<br><font color='#BA55D3'>NO TORRENT !!!</br></font>
<br><font color='#32CD32'>NO MULTI-LOGIN !!!</br></font>
<br></br>
<br><font color='#FF0000'>FOLLOW THE RULES OR</br></font>
<br><font color='#FF0000'>YOUR ACCOUNT WILL BE BANNED</br></font>
<br></br>
<br><font color='#000000'>=======================================</br></font>
<br><font color='#0000FF'>************** <b>Created by 0123456</b> ***************</br></font>
<br><font color='#000000'>=======================================</br></font>
